{
    "page": 1,
    "per_page": 15,
    "photos": [
        {
            "id": 12642987,
            "width": 5809,
            "height": 8714,
            "url": "https://www.pexels.com/photo/a-man-holding-a-teapot-12642987/",
            "photographer": "Till Daling",
            "photographer_url": "https://www.pexels.com/@till-daling-230380428",
            "photographer_id": 230380428,
            "avg_color": "#8B8879",
            "src": {
                "original": "https://images.pexels.com/photos/12642987/pexels-photo-12642987.jpeg",
                "large2x": "https://images.pexels.com/photos/12642987/pexels-photo-12642987.jpeg?auto=compress\u0026cs=tinysrgb\u0026dpr=2\u0026h=650\u0026w=940",
                "large": "https://images.pexels.com/photos/12642987/pexels-photo-12642987.jpeg?auto=compress\u0026cs=tinysrgb\u0026h=650\u0026w=940",
                "medium": "https://images.pexels.com/photos/12642987/pexels-photo-12642987.jpeg?auto=compress\u0026cs=tinysrgb\u0026h=350",
                "small": "https://images.pexels.com/photos/12642987/pexels-photo-12642987.jpeg?auto=compress\u0026cs=tinysrgb\u0026h=130",
                "portrait": "https://images.pexels.com/photos/12642987/pexels-photo-12642987.jpeg?auto=compress\u0026cs=tinysrgb\u0026fit=crop\u0026h=1200\u0026w=800",
                "landscape": "https://images.pexels.com/photos/12642987/pexels-photo-12642987.jpeg?auto=compress\u0026cs=tinysrgb\u0026fit=crop\u0026h=627\u0026w=1200",
                "tiny": "https://images.pexels.com/photos/12642987/pexels-photo-12642987.jpeg?auto=compress\u0026cs=tinysrgb\u0026dpr=1\u0026fit=crop\u0026h=200\u0026w=280"
            },
            "liked": false,
            "alt": ""
        },
        {
            "id": 12623468,
            "width": 3406,
            "height": 4257,
            "url": "https://www.pexels.com/photo/portrait-of-woman-with-unbuttoned-shirt-against-white-background-12623468/",
            "photographer": "Mubarak Salam",
            "photographer_url": "https://www.pexels.com/@roccshotit",
            "photographer_id": 258458202,
            "avg_color": "#CEC0B7",
            "src": {
                "original": "https://images.pexels.com/photos/12623468/pexels-photo-12623468.jpeg",
                "large2x": "https://images.pexels.com/photos/12623468/pexels-photo-12623468.jpeg?auto=compress\u0026cs=tinysrgb\u0026dpr=2\u0026h=650\u0026w=940",
                "large": "https://images.pexels.com/photos/12623468/pexels-photo-12623468.jpeg?auto=compress\u0026cs=tinysrgb\u0026h=650\u0026w=940",
                "medium": "https://images.pexels.com/photos/12623468/pexels-photo-12623468.jpeg?auto=compress\u0026cs=tinysrgb\u0026h=350",
                "small": "https://images.pexels.com/photos/12623468/pexels-photo-12623468.jpeg?auto=compress\u0026cs=tinysrgb\u0026h=130",
                "portrait": "https://images.pexels.com/photos/12623468/pexels-photo-12623468.jpeg?auto=compress\u0026cs=tinysrgb\u0026fit=crop\u0026h=1200\u0026w=800",
                "landscape": "https://images.pexels.com/photos/12623468/pexels-photo-12623468.jpeg?auto=compress\u0026cs=tinysrgb\u0026fit=crop\u0026h=627\u0026w=1200",
                "tiny": "https://images.pexels.com/photos/12623468/pexels-photo-12623468.jpeg?auto=compress\u0026cs=tinysrgb\u0026dpr=1\u0026fit=crop\u0026h=200\u0026w=280"
            },
            "liked": false,
            "alt": ""
        },
        {
            "id": 12610341,
            "width": 4336,
            "height": 6071,
            "url": "https://www.pexels.com/photo/african-american-girl-with-afro-hairstyle-sitting-on-ground-12610341/",
            "photographer": "Megan Ruth",
            "photographer_url": "https://www.pexels.com/@megan-ruth-192440753",
            "photographer_id": 192440753,
            "avg_color": "#92917D",
            "src": {
                "original": "https://images.pexels.com/photos/12610341/pexels-photo-12610341.jpeg",
                "large2x": "https://images.pexels.com/photos/12610341/pexels-photo-12610341.jpeg?auto=compress\u0026cs=tinysrgb\u0026dpr=2\u0026h=650\u0026w=940",
                "large": "https://images.pexels.com/photos/12610341/pexels-photo-12610341.jpeg?auto=compress\u0026cs=tinysrgb\u0026h=650\u0026w=940",
                "medium": "https://images.pexels.com/photos/12610341/pexels-photo-12610341.jpeg?auto=compress\u0026cs=tinysrgb\u0026h=350",
                "small": "https://images.pexels.com/photos/12610341/pexels-photo-12610341.jpeg?auto=compress\u0026cs=tinysrgb\u0026h=130",
                "portrait": "https://images.pexels.com/photos/12610341/pexels-photo-12610341.jpeg?auto=compress\u0026cs=tinysrgb\u0026fit=crop\u0026h=1200\u0026w=800",
                "landscape": "https://images.pexels.com/photos/12610341/pexels-photo-12610341.jpeg?auto=compress\u0026cs=tinysrgb\u0026fit=crop\u0026h=627\u0026w=1200",
                "tiny": "https://images.pexels.com/photos/12610341/pexels-photo-12610341.jpeg?auto=compress\u0026cs=tinysrgb\u0026dpr=1\u0026fit=crop\u0026h=200\u0026w=280"
            },
            "liked": false,
            "alt": "Free stock photo of abandoned, color, editorial"
        },
        {
            "id": 12608580,
            "width": 3379,
            "height": 4223,
            "url": "https://www.pexels.com/photo/portrait-of-a-woman-posing-on-a-white-background-12608580/",
            "photographer": "Mubarak Salam",
            "photographer_url": "https://www.pexels.com/@roccshotit",
            "photographer_id": 258458202,
            "avg_color": "#E5DED8",
            "src": {
                "original": "https://images.pexels.com/photos/12608580/pexels-photo-12608580.jpeg",
                "large2x": "https://images.pexels.com/photos/12608580/pexels-photo-12608580.jpeg?auto=compress\u0026cs=tinysrgb\u0026dpr=2\u0026h=650\u0026w=940",
                "large": "https://images.pexels.com/photos/12608580/pexels-photo-12608580.jpeg?auto=compress\u0026cs=tinysrgb\u0026h=650\u0026w=940",
                "medium": "https://images.pexels.com/photos/12608580/pexels-photo-12608580.jpeg?auto=compress\u0026cs=tinysrgb\u0026h=350",
                "small": "https://images.pexels.com/photos/12608580/pexels-photo-12608580.jpeg?auto=compress\u0026cs=tinysrgb\u0026h=130",
                "portrait": "https://images.pexels.com/photos/12608580/pexels-photo-12608580.jpeg?auto=compress\u0026cs=tinysrgb\u0026fit=crop\u0026h=1200\u0026w=800",
                "landscape": "https://images.pexels.com/photos/12608580/pexels-photo-12608580.jpeg?auto=compress\u0026cs=tinysrgb\u0026fit=crop\u0026h=627\u0026w=1200",
                "tiny": "https://images.pexels.com/photos/12608580/pexels-photo-12608580.jpeg?auto=compress\u0026cs=tinysrgb\u0026dpr=1\u0026fit=crop\u0026h=200\u0026w=280"
            },
            "liked": false,
            "alt": ""
        },
        {
            "id": 12666299,
            "width": 2953,
            "height": 4000,
            "url": "https://www.pexels.com/photo/brown-rock-formation-beside-body-of-water-12666299/",
            "photographer": "Batın Özen",
            "photographer_url": "https://www.pexels.com/@gocebey",
            "photographer_id": 47479426,
            "avg_color": "#A5A7A2",
            "src": {
                "original": "https://images.pexels.com/photos/12666299/pexels-photo-12666299.jpeg",
                "large2x": "https://images.pexels.com/photos/12666299/pexels-photo-12666299.jpeg?auto=compress\u0026cs=tinysrgb\u0026dpr=2\u0026h=650\u0026w=940",
                "large": "https://images.pexels.com/photos/12666299/pexels-photo-12666299.jpeg?auto=compress\u0026cs=tinysrgb\u0026h=650\u0026w=940",
                "medium": "https://images.pexels.com/photos/12666299/pexels-photo-12666299.jpeg?auto=compress\u0026cs=tinysrgb\u0026h=350",
                "small": "https://images.pexels.com/photos/12666299/pexels-photo-12666299.jpeg?auto=compress\u0026cs=tinysrgb\u0026h=130",
                "portrait": "https://images.pexels.com/photos/12666299/pexels-photo-12666299.jpeg?auto=compress\u0026cs=tinysrgb\u0026fit=crop\u0026h=1200\u0026w=800",
                "landscape": "https://images.pexels.com/photos/12666299/pexels-photo-12666299.jpeg?auto=compress\u0026cs=tinysrgb\u0026fit=crop\u0026h=627\u0026w=1200",
                "tiny": "https://images.pexels.com/photos/12666299/pexels-photo-12666299.jpeg?auto=compress\u0026cs=tinysrgb\u0026dpr=1\u0026fit=crop\u0026h=200\u0026w=280"
            },
            "liked": false,
            "alt": ""
        },
        {
            "id": 12656616,
            "width": 6336,
            "height": 9504,
            "url": "https://www.pexels.com/photo/the-lost-village-12656616/",
            "photographer": "Till Daling",
            "photographer_url": "https://www.pexels.com/@till-daling-230380428",
            "photographer_id": 230380428,
            "avg_color": "#919584",
            "src": {
                "original": "https://images.pexels.com/photos/12656616/pexels-photo-12656616.jpeg",
                "large2x": "https://images.pexels.com/photos/12656616/pexels-photo-12656616.jpeg?auto=compress\u0026cs=tinysrgb\u0026dpr=2\u0026h=650\u0026w=940",
                "large": "https://images.pexels.com/photos/12656616/pexels-photo-12656616.jpeg?auto=compress\u0026cs=tinysrgb\u0026h=650\u0026w=940",
                "medium": "https://images.pexels.com/photos/12656616/pexels-photo-12656616.jpeg?auto=compress\u0026cs=tinysrgb\u0026h=350",
                "small": "https://images.pexels.com/photos/12656616/pexels-photo-12656616.jpeg?auto=compress\u0026cs=tinysrgb\u0026h=130",
                "portrait": "https://images.pexels.com/photos/12656616/pexels-photo-12656616.jpeg?auto=compress\u0026cs=tinysrgb\u0026fit=crop\u0026h=1200\u0026w=800",
                "landscape": "https://images.pexels.com/photos/12656616/pexels-photo-12656616.jpeg?auto=compress\u0026cs=tinysrgb\u0026fit=crop\u0026h=627\u0026w=1200",
                "tiny": "https://images.pexels.com/photos/12656616/pexels-photo-12656616.jpeg?auto=compress\u0026cs=tinysrgb\u0026dpr=1\u0026fit=crop\u0026h=200\u0026w=280"
            },
            "liked": false,
            "alt": "The lost village"
        },
        {
            "id": 12568118,
            "width": 3691,
            "height": 5536,
            "url": "https://www.pexels.com/photo/close-up-of-leaves-12568118/",
            "photographer": "Jonathan Cooper",
            "photographer_url": "https://www.pexels.com/@theshuttervision",
            "photographer_id": 82255355,
            "avg_color": "#23402C",
            "src": {
                "original": "https://images.pexels.com/photos/12568118/pexels-photo-12568118.jpeg",
                "large2x": "https://images.pexels.com/photos/12568118/pexels-photo-12568118.jpeg?auto=compress\u0026cs=tinysrgb\u0026dpr=2\u0026h=650\u0026w=940",
                "large": "https://images.pexels.com/photos/12568118/pexels-photo-12568118.jpeg?auto=compress\u0026cs=tinysrgb\u0026h=650\u0026w=940",
                "medium": "https://images.pexels.com/photos/12568118/pexels-photo-12568118.jpeg?auto=compress\u0026cs=tinysrgb\u0026h=350",
                "small": "https://images.pexels.com/photos/12568118/pexels-photo-12568118.jpeg?auto=compress\u0026cs=tinysrgb\u0026h=130",
                "portrait": "https://images.pexels.com/photos/12568118/pexels-photo-12568118.jpeg?auto=compress\u0026cs=tinysrgb\u0026fit=crop\u0026h=1200\u0026w=800",
                "landscape": "https://images.pexels.com/photos/12568118/pexels-photo-12568118.jpeg?auto=compress\u0026cs=tinysrgb\u0026fit=crop\u0026h=627\u0026w=1200",
                "tiny": "https://images.pexels.com/photos/12568118/pexels-photo-12568118.jpeg?auto=compress\u0026cs=tinysrgb\u0026dpr=1\u0026fit=crop\u0026h=200\u0026w=280"
            },
            "liked": false,
            "alt": ""
        },
        {
            "id": 12551608,
            "width": 3451,
            "height": 5176,
            "url": "https://www.pexels.com/photo/woman-standing-in-building-with-mirror-ceil-12551608/",
            "photographer": "Hannah Bickmore",
            "photographer_url": "https://www.pexels.com/@hannah-bickmore-105653438",
            "photographer_id": 105653438,
            "avg_color": "#979D8F",
            "src": {
                "original": "https://images.pexels.com/photos/12551608/pexels-photo-12551608.jpeg",
                "large2x": "https://images.pexels.com/photos/12551608/pexels-photo-12551608.jpeg?auto=compress\u0026cs=tinysrgb\u0026dpr=2\u0026h=650\u0026w=940",
                "large": "https://images.pexels.com/photos/12551608/pexels-photo-12551608.jpeg?auto=compress\u0026cs=tinysrgb\u0026h=650\u0026w=940",
                "medium": "https://images.pexels.com/photos/12551608/pexels-photo-12551608.jpeg?auto=compress\u0026cs=tinysrgb\u0026h=350",
                "small": "https://images.pexels.com/photos/12551608/pexels-photo-12551608.jpeg?auto=compress\u0026cs=tinysrgb\u0026h=130",
                "portrait": "https://images.pexels.com/photos/12551608/pexels-photo-12551608.jpeg?auto=compress\u0026cs=tinysrgb\u0026fit=crop\u0026h=1200\u0026w=800",
                "landscape": "https://images.pexels.com/photos/12551608/pexels-photo-12551608.jpeg?auto=compress\u0026cs=tinysrgb\u0026fit=crop\u0026h=627\u0026w=1200",
                "tiny": "https://images.pexels.com/photos/12551608/pexels-photo-12551608.jpeg?auto=compress\u0026cs=tinysrgb\u0026dpr=1\u0026fit=crop\u0026h=200\u0026w=280"
            },
            "liked": false,
            "alt": "Woman in White Turtle Neck Sweater and Blue Denim Jeans Standing"
        },
        {
            "id": 12553640,
            "width": 3840,
            "height": 5760,
            "url": "https://www.pexels.com/photo/bouquet-on-an-armchair-12553640/",
            "photographer": "Melike  Benli",
            "photographer_url": "https://www.pexels.com/@mlkbnl",
            "photographer_id": 43043410,
            "avg_color": "#475846",
            "src": {
                "original": "https://images.pexels.com/photos/12553640/pexels-photo-12553640.jpeg",
                "large2x": "https://images.pexels.com/photos/12553640/pexels-photo-12553640.jpeg?auto=compress\u0026cs=tinysrgb\u0026dpr=2\u0026h=650\u0026w=940",
                "large": "https://images.pexels.com/photos/12553640/pexels-photo-12553640.jpeg?auto=compress\u0026cs=tinysrgb\u0026h=650\u0026w=940",
                "medium": "https://images.pexels.com/photos/12553640/pexels-photo-12553640.jpeg?auto=compress\u0026cs=tinysrgb\u0026h=350",
                "small": "https://images.pexels.com/photos/12553640/pexels-photo-12553640.jpeg?auto=compress\u0026cs=tinysrgb\u0026h=130",
                "portrait": "https://images.pexels.com/photos/12553640/pexels-photo-12553640.jpeg?auto=compress\u0026cs=tinysrgb\u0026fit=crop\u0026h=1200\u0026w=800",
                "landscape": "https://images.pexels.com/photos/12553640/pexels-photo-12553640.jpeg?auto=compress\u0026cs=tinysrgb\u0026fit=crop\u0026h=627\u0026w=1200",
                "tiny": "https://images.pexels.com/photos/12553640/pexels-photo-12553640.jpeg?auto=compress\u0026cs=tinysrgb\u0026dpr=1\u0026fit=crop\u0026h=200\u0026w=280"
            },
            "liked": false,
            "alt": ""
        },
        {
            "id": 12552849,
            "width": 1981,
            "height": 2972,
            "url": "https://www.pexels.com/photo/shot-of-dry-flowers-against-white-wall-12552849/",
            "photographer": "Esther Höfling",
            "photographer_url": "https://www.pexels.com/@esther-hofling-253746118",
            "photographer_id": 253746118,
            "avg_color": "#AC9585",
            "src": {
                "original": "https://images.pexels.com/photos/12552849/pexels-photo-12552849.jpeg",
                "large2x": "https://images.pexels.com/photos/12552849/pexels-photo-12552849.jpeg?auto=compress\u0026cs=tinysrgb\u0026dpr=2\u0026h=650\u0026w=940",
                "large": "https://images.pexels.com/photos/12552849/pexels-photo-12552849.jpeg?auto=compress\u0026cs=tinysrgb\u0026h=650\u0026w=940",
                "medium": "https://images.pexels.com/photos/12552849/pexels-photo-12552849.jpeg?auto=compress\u0026cs=tinysrgb\u0026h=350",
                "small": "https://images.pexels.com/photos/12552849/pexels-photo-12552849.jpeg?auto=compress\u0026cs=tinysrgb\u0026h=130",
                "portrait": "https://images.pexels.com/photos/12552849/pexels-photo-12552849.jpeg?auto=compress\u0026cs=tinysrgb\u0026fit=crop\u0026h=1200\u0026w=800",
                "landscape": "https://images.pexels.com/photos/12552849/pexels-photo-12552849.jpeg?auto=compress\u0026cs=tinysrgb\u0026fit=crop\u0026h=627\u0026w=1200",
                "tiny": "https://images.pexels.com/photos/12552849/pexels-photo-12552849.jpeg?auto=compress\u0026cs=tinysrgb\u0026dpr=1\u0026fit=crop\u0026h=200\u0026w=280"
            },
            "liked": false,
            "alt": "Shot of Dry Flowers against White Wall"
        },
        {
            "id": 12632089,
            "width": 4002,
            "height": 6002,
            "url": "https://www.pexels.com/photo/white-and-brown-concrete-building-12632089/",
            "photographer": "Connor Steinert",
            "photographer_url": "https://www.pexels.com/@connor-steinert-259815984",
            "photographer_id": 259815984,
            "avg_color": "#858579",
            "src": {
                "original": "https://images.pexels.com/photos/12632089/pexels-photo-12632089.jpeg",
                "large2x": "https://images.pexels.com/photos/12632089/pexels-photo-12632089.jpeg?auto=compress\u0026cs=tinysrgb\u0026dpr=2\u0026h=650\u0026w=940",
                "large": "https://images.pexels.com/photos/12632089/pexels-photo-12632089.jpeg?auto=compress\u0026cs=tinysrgb\u0026h=650\u0026w=940",
                "medium": "https://images.pexels.com/photos/12632089/pexels-photo-12632089.jpeg?auto=compress\u0026cs=tinysrgb\u0026h=350",
                "small": "https://images.pexels.com/photos/12632089/pexels-photo-12632089.jpeg?auto=compress\u0026cs=tinysrgb\u0026h=130",
                "portrait": "https://images.pexels.com/photos/12632089/pexels-photo-12632089.jpeg?auto=compress\u0026cs=tinysrgb\u0026fit=crop\u0026h=1200\u0026w=800",
                "landscape": "https://images.pexels.com/photos/12632089/pexels-photo-12632089.jpeg?auto=compress\u0026cs=tinysrgb\u0026fit=crop\u0026h=627\u0026w=1200",
                "tiny": "https://images.pexels.com/photos/12632089/pexels-photo-12632089.jpeg?auto=compress\u0026cs=tinysrgb\u0026dpr=1\u0026fit=crop\u0026h=200\u0026w=280"
            },
            "liked": false,
            "alt": "Free stock photo of architecture, library, light"
        },
        {
            "id": 12629400,
            "width": 4000,
            "height": 6000,
            "url": "https://www.pexels.com/photo/grayscale-photo-of-tree-branches-on-body-of-water-12629400/",
            "photographer": "Kris Møklebust",
            "photographer_url": "https://www.pexels.com/@moklebust",
            "photographer_id": 3182533,
            "avg_color": "#929292",
            "src": {
                "original": "https://images.pexels.com/photos/12629400/pexels-photo-12629400.jpeg",
                "large2x": "https://images.pexels.com/photos/12629400/pexels-photo-12629400.jpeg?auto=compress\u0026cs=tinysrgb\u0026dpr=2\u0026h=650\u0026w=940",
                "large": "https://images.pexels.com/photos/12629400/pexels-photo-12629400.jpeg?auto=compress\u0026cs=tinysrgb\u0026h=650\u0026w=940",
                "medium": "https://images.pexels.com/photos/12629400/pexels-photo-12629400.jpeg?auto=compress\u0026cs=tinysrgb\u0026h=350",
                "small": "https://images.pexels.com/photos/12629400/pexels-photo-12629400.jpeg?auto=compress\u0026cs=tinysrgb\u0026h=130",
                "portrait": "https://images.pexels.com/photos/12629400/pexels-photo-12629400.jpeg?auto=compress\u0026cs=tinysrgb\u0026fit=crop\u0026h=1200\u0026w=800",
                "landscape": "https://images.pexels.com/photos/12629400/pexels-photo-12629400.jpeg?auto=compress\u0026cs=tinysrgb\u0026fit=crop\u0026h=627\u0026w=1200",
                "tiny": "https://images.pexels.com/photos/12629400/pexels-photo-12629400.jpeg?auto=compress\u0026cs=tinysrgb\u0026dpr=1\u0026fit=crop\u0026h=200\u0026w=280"
            },
            "liked": false,
            "alt": ""
        },
        {
            "id": 12598202,
            "width": 3024,
            "height": 4032,
            "url": "https://www.pexels.com/photo/brown-sand-with-footprints-12598202/",
            "photographer": "Ahsen.",
            "photographer_url": "https://www.pexels.com/@ahsen-138435184",
            "photographer_id": 138435184,
            "avg_color": "#868686",
            "src": {
                "original": "https://images.pexels.com/photos/12598202/pexels-photo-12598202.jpeg",
                "large2x": "https://images.pexels.com/photos/12598202/pexels-photo-12598202.jpeg?auto=compress\u0026cs=tinysrgb\u0026dpr=2\u0026h=650\u0026w=940",
                "large": "https://images.pexels.com/photos/12598202/pexels-photo-12598202.jpeg?auto=compress\u0026cs=tinysrgb\u0026h=650\u0026w=940",
                "medium": "https://images.pexels.com/photos/12598202/pexels-photo-12598202.jpeg?auto=compress\u0026cs=tinysrgb\u0026h=350",
                "small": "https://images.pexels.com/photos/12598202/pexels-photo-12598202.jpeg?auto=compress\u0026cs=tinysrgb\u0026h=130",
                "portrait": "https://images.pexels.com/photos/12598202/pexels-photo-12598202.jpeg?auto=compress\u0026cs=tinysrgb\u0026fit=crop\u0026h=1200\u0026w=800",
                "landscape": "https://images.pexels.com/photos/12598202/pexels-photo-12598202.jpeg?auto=compress\u0026cs=tinysrgb\u0026fit=crop\u0026h=627\u0026w=1200",
                "tiny": "https://images.pexels.com/photos/12598202/pexels-photo-12598202.jpeg?auto=compress\u0026cs=tinysrgb\u0026dpr=1\u0026fit=crop\u0026h=200\u0026w=280"
            },
            "liked": false,
            "alt": "Free stock photo of 4k wallpaper, black and white, minimal"
        },
        {
            "id": 12604241,
            "width": 3456,
            "height": 5184,
            "url": "https://www.pexels.com/photo/water-dew-on-green-grass-12604241/",
            "photographer": "Nastiz",
            "photographer_url": "https://www.pexels.com/@nastiz",
            "photographer_id": 3524325,
            "avg_color": "#4F663A",
            "src": {
                "original": "https://images.pexels.com/photos/12604241/pexels-photo-12604241.jpeg",
                "large2x": "https://images.pexels.com/photos/12604241/pexels-photo-12604241.jpeg?auto=compress\u0026cs=tinysrgb\u0026dpr=2\u0026h=650\u0026w=940",
                "large": "https://images.pexels.com/photos/12604241/pexels-photo-12604241.jpeg?auto=compress\u0026cs=tinysrgb\u0026h=650\u0026w=940",
                "medium": "https://images.pexels.com/photos/12604241/pexels-photo-12604241.jpeg?auto=compress\u0026cs=tinysrgb\u0026h=350",
                "small": "https://images.pexels.com/photos/12604241/pexels-photo-12604241.jpeg?auto=compress\u0026cs=tinysrgb\u0026h=130",
                "portrait": "https://images.pexels.com/photos/12604241/pexels-photo-12604241.jpeg?auto=compress\u0026cs=tinysrgb\u0026fit=crop\u0026h=1200\u0026w=800",
                "landscape": "https://images.pexels.com/photos/12604241/pexels-photo-12604241.jpeg?auto=compress\u0026cs=tinysrgb\u0026fit=crop\u0026h=627\u0026w=1200",
                "tiny": "https://images.pexels.com/photos/12604241/pexels-photo-12604241.jpeg?auto=compress\u0026cs=tinysrgb\u0026dpr=1\u0026fit=crop\u0026h=200\u0026w=280"
            },
            "liked": false,
            "alt": ""
        },
        {
            "id": 12604485,
            "width": 3456,
            "height": 5184,
            "url": "https://www.pexels.com/photo/rainy-day-in-ireland-two-2-cups-of-tea-green-pillow-and-bed-window-view-hotel-12604485/",
            "photographer": "Nana Lapushkina",
            "photographer_url": "https://www.pexels.com/@lapushkina",
            "photographer_id": 140434217,
            "avg_color": "#807C79",
            "src": {
                "original": "https://images.pexels.com/photos/12604485/pexels-photo-12604485.jpeg",
                "large2x": "https://images.pexels.com/photos/12604485/pexels-photo-12604485.jpeg?auto=compress\u0026cs=tinysrgb\u0026dpr=2\u0026h=650\u0026w=940",
                "large": "https://images.pexels.com/photos/12604485/pexels-photo-12604485.jpeg?auto=compress\u0026cs=tinysrgb\u0026h=650\u0026w=940",
                "medium": "https://images.pexels.com/photos/12604485/pexels-photo-12604485.jpeg?auto=compress\u0026cs=tinysrgb\u0026h=350",
                "small": "https://images.pexels.com/photos/12604485/pexels-photo-12604485.jpeg?auto=compress\u0026cs=tinysrgb\u0026h=130",
                "portrait": "https://images.pexels.com/photos/12604485/pexels-photo-12604485.jpeg?auto=compress\u0026cs=tinysrgb\u0026fit=crop\u0026h=1200\u0026w=800",
                "landscape": "https://images.pexels.com/photos/12604485/pexels-photo-12604485.jpeg?auto=compress\u0026cs=tinysrgb\u0026fit=crop\u0026h=627\u0026w=1200",
                "tiny": "https://images.pexels.com/photos/12604485/pexels-photo-12604485.jpeg?auto=compress\u0026cs=tinysrgb\u0026dpr=1\u0026fit=crop\u0026h=200\u0026w=280"
            },
            "liked": false,
            "alt": ""
        }
    ],
    "total_results": 8000,
    "next_page": "https://api.pexels.com/v1/curated/?page=2\u0026per_page=15"
}